{
  "@odata.context": "https://graph.microsoft.com/beta/$metadata#users/$entity",
  "id": "abc-123-def",
  "deletedDateTime": null,
  "accountEnabled": true,
  "ageGroup": null,
  "businessPhones": [
    "(602) 555-1212"
  ],
  "city": "IT",
  "createdDateTime": "2015-02-19T03:40:38Z",
  "creationType": null,
  "companyName": "MCCCD (PC)",
  "consentProvidedForMinor": null,
  "country": null,
  "department": "Tech Services",
  "displayName": "Foo,Bar B",
  "employeeId": "12345",
  "employeeHireDate": null,
  "employeeLeaveDateTime": null,
  "employeeType": null,
  "faxNumber": null,
  "givenName": "Foo",
  "imAddresses": [
    "abc1234567@maricopa.edu"
  ],
  "infoCatalogs": [],
  "isLicenseReconciliationNeeded": false,
  "isManagementRestricted": null,
  "isResourceAccount": null,
  "jobTitle": "Software Developer Engineer",
  "legalAgeGroupClassification": null,
  "mail": "foo.bar@example.edu",
  "mailNickname": "ABC1234567",
  "mobilePhone": null,
  "onPremisesDistinguishedName": null,
  "officeLocation": "PC / IT / 101",
  "onPremisesDomainName": "college.org",
  "onPremisesImmutableId": "",
  "onPremisesLastSyncDateTime": "2023-09-14T19:06:13Z",
  "onPremisesObjectIdentifier": null,
  "onPremisesSecurityIdentifier": "",
  "onPremisesSamAccountName": "ABC1234567",
  "onPremisesSyncEnabled": true,
  "onPremisesUserPrincipalName": "ABC1234567@maricopa.edu",
  "otherMails": [],
  "passwordPolicies": "DisablePasswordExpiration",
  "postalCode": null,
  "preferredDataLocation": null,
  "preferredLanguage": null,
  "proxyAddresses": [],
  "refreshTokensValidFromDateTime": "2021-03-26T14:27:58Z",
  "securityIdentifier": "",
  "showInAddressList": true,
  "signInSessionsValidFromDateTime": "2021-03-26T14:27:58Z",
  "state": null,
  "streetAddress": null,
  "surname": "Bar",
  "usageLocation": "US",
  "userPrincipalName": "notanmeid@example.edu",
  "externalUserConvertedOn": null,
  "externalUserState": null,
  "externalUserStateChangeDateTime": null,
  "userType": "Member",
  "employeeOrgData": null,
  "passwordProfile": null,
  "assignedLicenses": [],
  "assignedPlans": [],
  "authorizationInfo": {
    "certificateUserIds": []
  },
  "cloudRealtimeCommunicationInfo": {
    "isSipEnabled": true
  },
  "deviceKeys": [],
  "identities": [],
  "onPremisesExtensionAttributes": {
    "extensionAttribute1": "",
    "extensionAttribute2": "",
    "extensionAttribute3": "Y",
    "extensionAttribute4": null,
    "extensionAttribute5": "Foo Bar",
    "extensionAttribute6": "foo.bar@example.edu",
    "extensionAttribute7": null,
    "extensionAttribute8": null,
    "extensionAttribute9": null,
    "extensionAttribute10": "Employee",
    "extensionAttribute11": "ABC1234567",
    "extensionAttribute12": "39999999",
    "extensionAttribute13": "ABC1234567@example.edu",
    "extensionAttribute14": "foo.bar@example.edu",
    "extensionAttribute15": null
  },
  "onPremisesProvisioningErrors": [],
  "onPremisesSipInfo": {
    "isSipEnabled": true,
    "sipDeploymentLocation": "sipfed.online.lync.com",
    "sipPrimaryAddress": "sip:ABC1234567@maricopa.edu"
  },
  "provisionedPlans": [],
  "serviceProvisioningErrors": []
}
